<svg width="17" height="17" viewBox="0 0 17 17" fill="none" xmlns="http://www.w3.org/2000/svg">
<path fill-rule="evenodd" clip-rule="evenodd" d="M4.06952 8.79248C4.06952 6.54546 5.8911 4.72359 8.13806 4.72359C10.385 4.72359 12.2066 6.54546 12.2066 8.79248C12.2066 11.0395 10.385 12.8613 8.13806 12.8613C5.8911 12.8613 4.06952 11.0395 4.06952 8.79248ZM5.59462 8.79248C5.59462 10.1945 6.73602 11.3354 8.13806 11.3354C9.53914 11.3354 10.6805 10.1945 10.6805 8.79248C10.6805 7.38997 9.53914 6.24912 8.13806 6.24912C6.73602 6.24912 5.59462 7.38997 5.59462 8.79248Z" fill="#5C5C5C"/>
<path d="M13.0535 4.41864C13.0535 4.11943 12.8112 3.87661 12.5118 3.87661C12.2124 3.87661 11.9692 4.11943 11.9692 4.41864C11.9692 4.71745 12.2124 4.96067 12.5118 4.96067C12.8112 4.96067 13.0535 4.71745 13.0535 4.41864Z" fill="#5C5C5C"/>
<path fill-rule="evenodd" clip-rule="evenodd" d="M5.0869 0.655518H11.1892C13.9982 0.655518 16.2752 2.93276 16.2752 5.741V11.8439C16.2752 14.653 13.9982 16.9298 11.1892 16.9298H5.0869C2.27796 16.9298 0 14.653 0 11.8439V5.741C0 2.93276 2.27796 0.655518 5.0869 0.655518ZM11.1892 15.4047C13.1523 15.4047 14.7501 13.8068 14.7501 11.8439V5.741C14.7501 3.77769 13.1523 2.18105 11.1892 2.18105H5.0869C3.12286 2.18105 1.52606 3.77769 1.52606 5.741V11.8439C1.52606 13.8068 3.12286 15.4047 5.0869 15.4047H11.1892Z" fill="#5C5C5C"/>
</svg>
