<svg width="30" height="34" viewBox="0 0 30 34" fill="none" xmlns="http://www.w3.org/2000/svg">
<path d="M18.2515 15.07L13.1173 16.6943C12.9112 16.7595 12.7498 16.9209 12.6845 17.127L11.0592 22.2582C10.9844 22.4945 11.0473 22.7528 11.2227 22.9282C11.3491 23.0547 11.5188 23.1228 11.6923 23.1228C11.7593 23.1228 11.8268 23.1126 11.8926 23.0918L17.0268 21.4675C17.2329 21.4024 17.3943 21.241 17.4596 21.0349L19.0849 15.9037C19.1597 15.6674 19.0968 15.409 18.9215 15.2337C18.7462 15.0583 18.488 14.9953 18.2515 15.07ZM16.2976 20.3052L12.7116 21.4397L13.8466 17.8566L17.4325 16.7222L16.2976 20.3052Z" fill="#D0D0D0"/>
<path d="M25.4133 8.53207C23.252 6.36577 20.543 4.94766 17.5993 4.40745C17.8184 3.9962 17.9312 3.53932 17.9312 3.05024C17.9313 1.3683 16.5654 0 14.8865 0C13.2076 0 11.8417 1.3683 11.8417 3.05024C11.8417 3.53932 11.9545 3.9962 12.1736 4.40745C9.22987 4.94766 6.52089 6.36577 4.35957 8.53207C1.54826 11.3499 0 15.0962 0 19.0809C0 23.0657 1.54826 26.812 4.35957 29.6298C7.17134 32.448 10.9099 34 14.8865 34C18.8631 34 22.6016 32.448 25.4133 29.6297C28.2246 26.8119 29.7729 23.0656 29.7729 19.0808C29.773 15.0962 28.2246 11.3499 25.4133 8.53207ZM13.1698 3.05024C13.1698 2.10063 13.9399 1.32812 14.8865 1.32812C15.833 1.32812 16.6032 2.10063 16.6032 3.05024C16.6032 3.49795 16.4334 3.88742 16.0981 4.21022C15.6972 4.17808 15.2931 4.16181 14.8866 4.16181C14.48 4.16181 14.0759 4.17802 13.675 4.21022C13.3396 3.88742 13.1698 3.49795 13.1698 3.05024ZM14.8865 32.6719C7.41041 32.6719 1.32812 26.575 1.32812 19.0809C1.32812 11.5868 7.41041 5.48994 14.8865 5.48994C22.3626 5.48994 28.4449 11.5868 28.4449 19.0809C28.4449 26.575 22.3626 32.6719 14.8865 32.6719Z" fill="#D0D0D0"/>
<path d="M14.8865 7.29924C8.40411 7.29924 3.13026 12.5844 3.13026 19.0809C3.13026 25.5774 8.40411 30.8626 14.8865 30.8626C21.3689 30.8626 26.6427 25.5774 26.6427 19.0809C26.6427 12.5844 21.3689 7.29924 14.8865 7.29924ZM14.8865 29.5344C9.13637 29.5344 4.45838 24.845 4.45838 19.0809C4.45838 13.3168 9.13637 8.62737 14.8865 8.62737C20.6366 8.62737 25.3146 13.3168 25.3146 19.0809C25.3146 24.845 20.6366 29.5344 14.8865 29.5344Z" fill="#D0D0D0"/>
<path d="M14.8865 11.9371C15.2532 11.9371 15.5506 11.6398 15.5506 11.273V10.2429C15.5506 9.87614 15.2532 9.57884 14.8865 9.57884C14.5198 9.57884 14.2224 9.87614 14.2224 10.2429V11.273C14.2224 11.6398 14.5198 11.9371 14.8865 11.9371Z" fill="#D0D0D0"/>
<path d="M14.8865 25.8539C14.5198 25.8539 14.2224 26.1512 14.2224 26.5179V27.548C14.2224 27.9148 14.5198 28.2121 14.8865 28.2121C15.2532 28.2121 15.5506 27.9148 15.5506 27.548V26.5179C15.5506 26.1512 15.2532 25.8539 14.8865 25.8539Z" fill="#D0D0D0"/>
<path d="M23.5441 18.2314H22.5134C22.1467 18.2314 21.8493 18.5287 21.8493 18.8954C21.8493 19.2622 22.1467 19.5595 22.5134 19.5595H23.5441C23.9108 19.5595 24.2081 19.2622 24.2081 18.8954C24.2081 18.5287 23.9108 18.2314 23.5441 18.2314Z" fill="#D0D0D0"/>
<path d="M7.25953 18.2314H6.22884C5.86214 18.2314 5.56478 18.5287 5.56478 18.8954C5.56478 19.2622 5.86214 19.5595 6.22884 19.5595H7.25953C7.62623 19.5595 7.92359 19.2622 7.92359 18.8954C7.92359 18.5287 7.62629 18.2314 7.25953 18.2314Z" fill="#D0D0D0"/>
<path d="M20.5389 12.3075L19.81 13.0358C19.5507 13.2951 19.5505 13.7155 19.8098 13.9749C19.9395 14.1047 20.1095 14.1696 20.2795 14.1696C20.4493 14.1696 20.6193 14.1048 20.7489 13.9752L21.4777 13.2469C21.7371 12.9876 21.7372 12.5671 21.478 12.3077C21.2187 12.0484 20.7982 12.0482 20.5389 12.3075Z" fill="#D0D0D0"/>
<path d="M9.02401 23.8157L8.2952 24.544C8.03582 24.8033 8.03569 25.2238 8.29494 25.4831C8.42463 25.6129 8.59463 25.6778 8.76463 25.6778C8.9345 25.6778 9.10443 25.613 9.23405 25.4834L9.96286 24.7551C10.2222 24.4958 10.2224 24.0753 9.96313 23.8159C9.70381 23.5566 9.28333 23.5563 9.02401 23.8157Z" fill="#D0D0D0"/>
<path d="M20.749 23.8157C20.4895 23.5565 20.0692 23.5566 19.8098 23.8159C19.5505 24.0753 19.5507 24.4958 19.81 24.7551L20.5389 25.4834C20.6685 25.613 20.8384 25.6778 21.0083 25.6778C21.1783 25.6778 21.3483 25.6129 21.478 25.4831C21.7372 25.2238 21.7371 24.8033 21.4777 24.544L20.749 23.8157Z" fill="#D0D0D0"/>
<path d="M9.23412 12.3075C8.97467 12.0482 8.55432 12.0484 8.29494 12.3077C8.03569 12.5671 8.03582 12.9876 8.2952 13.2469L9.02401 13.9752C9.1537 14.1048 9.32357 14.1696 9.49344 14.1696C9.6635 14.1696 9.83344 14.1047 9.96313 13.9749C10.2224 13.7155 10.2222 13.2951 9.96286 13.0358L9.23412 12.3075Z" fill="#D0D0D0"/>
</svg>
