<svg width="39" height="36" viewBox="0 0 39 36" fill="none" xmlns="http://www.w3.org/2000/svg">
<path d="M33.3574 9.57983C33.8873 9.57983 34.4232 9.4917 34.9428 9.3078C36.1492 8.88087 37.117 8.00968 37.6681 6.85481C38.2192 5.69993 38.2877 4.39954 37.8607 3.19318C37.4759 2.10592 36.7122 1.194 35.71 0.625415C34.7184 0.0628169 33.5585 -0.12888 32.4439 0.0856054C32.2002 0.132545 31.995 0.295851 31.8946 0.522829C31.7942 0.749806 31.8115 1.01153 31.9407 1.22337C32.0588 1.41696 32.1575 1.62463 32.2339 1.84071C32.5259 2.66572 32.4791 3.55515 32.1022 4.34496C31.7252 5.13483 31.0633 5.73067 30.2382 6.02261C30.0819 6.07795 29.9208 6.12171 29.7595 6.15275C29.5158 6.19962 29.3105 6.363 29.2102 6.58997C29.1098 6.81695 29.127 7.07868 29.2563 7.29052C30.1412 8.74104 31.7217 9.57983 33.3574 9.57983ZM33.4688 4.99719C33.9892 3.90682 34.0792 2.68661 33.7283 1.53855C34.9353 1.68596 36.0113 2.50597 36.4333 3.6984C36.7253 4.5234 36.6785 5.41284 36.3016 6.20264C35.9246 6.99252 35.2627 7.58836 34.4376 7.88029C33.3079 8.28027 32.0675 8.01824 31.1952 7.2644C32.1911 6.79522 32.9884 6.00406 33.4688 4.99719Z" fill="#A4CBFA"/>
<path d="M38.7634 26.1669C38.7634 25.7488 38.4244 25.4098 38.0063 25.4098C37.5881 25.4098 37.2492 25.7488 37.2492 26.1669V28.0483L29.3125 12.1563V10.661C29.3125 10.2428 28.9736 9.90386 28.5554 9.90386C28.1373 9.90386 27.7983 10.2428 27.7983 10.661V11.5756H11.7174V10.661C11.7174 10.2428 11.3784 9.90386 10.9603 9.90386C10.5421 9.90386 10.2032 10.2428 10.2032 10.661V12.1416L1.51419 28.2591V26.167C1.51419 25.7488 1.17524 25.4099 0.757097 25.4099C0.338952 25.4099 0 25.7488 0 26.167V35.2429C0 35.661 0.338952 36 0.757097 36H38.0063C38.4244 36 38.7634 35.661 38.7634 35.2429V26.1669ZM21.6153 30.5017L14.9646 18.1652H30.6209L36.7818 30.5017H21.6153ZM28.0862 13.0897L29.8647 16.651H14.1483L12.2285 13.0897H28.0862ZM10.2032 15.3325V17.4081C10.2032 17.8263 10.5421 18.1652 10.9603 18.1652C11.3784 18.1652 11.7174 17.8263 11.7174 17.4081V15.3325L19.8952 30.5017H16.7429L11.6267 21.0116C11.4946 20.7666 11.2387 20.6138 10.9603 20.6138C10.682 20.6138 10.426 20.7666 10.2939 21.0116L5.17763 30.5017H2.02531L10.2032 15.3325ZM6.89783 30.5017L10.9602 22.9664L15.0225 30.5017H6.89783ZM37.2492 34.4858H1.51419V32.0159H37.2492V34.4858Z" fill="#A4CBFA"/>
</svg>
